function data()
return {
	matConfigs = {
		{ 0, }, 
	},
	subMeshes = {
		{
			indices = {
				normal = {
					count = 4152,
					offset = 14524,
				},
				position = {
					count = 4152,
					offset = 22828,
				},
				tangent = {
					count = 4152,
					offset = 18676,
				},
				uv0 = {
					count = 4152,
					offset = 10372,
				},
			},
			materials = {
				"asset/domtrain_kofferleuchte.mtl", 
			},
		}, 
	},
	vertexAttr = {
		normal = {
			count = 2340,
			numComp = 3,
			offset = 1880,
		},
		position = {
			count = 2424,
			numComp = 3,
			offset = 7948,
		},
		tangent = {
			count = 3728,
			numComp = 4,
			offset = 4220,
		},
		uv0 = {
			count = 1880,
			numComp = 2,
			offset = 0,
		},
	},
}
end